<svg xmlns="http://www.w3.org/2000/svg" width="87.947" height="88.004" viewBox="0 0 87.947 88.004">
  <g id="QR_Code" data-name="QR Code" transform="translate(-176.629 -403.553)">
    <path id="Path_25964" data-name="Path 25964" d="M155.969,22.065h-4.63v4.629H160.6V22.065Z" transform="translate(53.061 381.489)"/>
    <rect id="Rectangle_5" data-name="Rectangle 5" width="4.629" height="4.629" transform="translate(232.174 403.553)"/>
    <path id="Path_25965" data-name="Path 25965" d="M174.891,26.694h-4.629V22.065h-4.628v4.629H161v9.257h-4.629v4.631H161V45.21h9.257V40.582h-4.628v-9.26H179.52V26.694Z" transform="translate(52.655 381.489)"/>
    <path id="Path_25966" data-name="Path 25966" d="M186.179,36.764V32.135h-4.628v9.257h4.628Z" transform="translate(50.624 380.676)"/>
    <path id="Path_25967" data-name="Path 25967" d="M151.34,46.833v4.629h4.629V42.2H151.34Z" transform="translate(53.061 379.863)"/>
    <rect id="Rectangle_6" data-name="Rectangle 6" width="4.629" height="4.629" transform="translate(227.546 422.068)"/>
    <rect id="Rectangle_7" data-name="Rectangle 7" width="4.629" height="4.629" transform="translate(209.03 454.469)"/>
    <rect id="Rectangle_8" data-name="Rectangle 8" width="4.629" height="4.629" transform="translate(176.629 431.325)"/>
    <path id="Path_25968" data-name="Path 25968" d="M175.3,56.5h4.628v4.629h4.629V56.5h4.629V51.869h-4.629V47.24h-4.629v4.629H161.411V56.5h9.258v4.629H175.3Z" transform="translate(52.249 379.457)"/>
    <path id="Path_25969" data-name="Path 25969" d="M211.354,56.9V52.275h-4.629v9.258h4.629Z" transform="translate(48.592 379.05)"/>
    <rect id="Rectangle_9" data-name="Rectangle 9" width="4.629" height="4.629" transform="translate(176.629 440.583)"/>
    <path id="Path_25970" data-name="Path 25970" d="M145.9,66.161h4.628V61.532h4.633V56.9H145.9V52.275H141.27v9.258H145.9Z" transform="translate(53.874 379.05)"/>
    <rect id="Rectangle_10" data-name="Rectangle 10" width="4.629" height="4.629" transform="translate(218.288 440.583)"/>
    <path id="Path_25971" data-name="Path 25971" d="M200.472,61.532V52.275h-4.631v9.258h-9.257v4.629h9.257V70.79h4.629V66.161H205.1V61.532Z" transform="translate(50.218 379.05)"/>
    <path id="Path_25972" data-name="Path 25972" d="M144.682,66.161h-4.63V61.532h-4.629V52.275h-4.628V56.9h-4.629v4.629h4.629v4.629h4.628V70.79h4.629v4.629h4.63Z" transform="translate(55.092 379.05)"/>
    <path id="Path_25973" data-name="Path 25973" d="M156.376,71.6H161v4.629h4.629V66.974H161V62.345h-4.629Z" transform="translate(52.655 378.238)"/>
    <path id="Path_25974" data-name="Path 25974" d="M210.949,67.38H206.32v9.261h-4.628v4.621h4.628V85.89h4.629v9.257h4.628V81.262h-4.628V76.641h4.628V72.009h-4.628Z" transform="translate(48.998 377.832)"/>
    <path id="Path_25975" data-name="Path 25975" d="M125.759,72.415H121.13v9.257h4.629V86.3h4.628V77.044h-4.628Z" transform="translate(55.499 377.425)"/>
    <rect id="Rectangle_11" data-name="Rectangle 11" width="4.629" height="4.629" transform="translate(185.887 449.84)"/>
    <path id="Path_25976" data-name="Path 25976" d="M185.368,72.009V67.38H171.481v9.261h4.629V72.009h4.631v4.632h4.628v4.621H190V76.641h4.629V72.009h-9.257Z" transform="translate(51.436 377.832)"/>
    <rect id="Rectangle_12" data-name="Rectangle 12" width="4.629" height="4.629" transform="translate(190.515 454.469)"/>
    <path id="Path_25977" data-name="Path 25977" d="M150.935,77.45h-4.629v9.258h4.629v9.257h4.628V82.078h-4.628Z" transform="translate(53.467 377.019)"/>
    <rect id="Rectangle_13" data-name="Rectangle 13" width="4.629" height="4.629" transform="translate(218.288 454.469)"/>
    <rect id="Rectangle_14" data-name="Rectangle 14" width="4.629" height="4.629" transform="translate(213.66 459.098)"/>
    <path id="Path_25978" data-name="Path 25978" d="M180.741,91.741V82.485h-4.629v4.629h-4.628v4.628Z" transform="translate(51.436 376.613)"/>
    <rect id="Rectangle_15" data-name="Rectangle 15" width="4.629" height="4.629" transform="translate(213.66 468.355)"/>
    <rect id="Rectangle_16" data-name="Rectangle 16" width="4.629" height="4.629" transform="translate(222.917 472.985)"/>
    <path id="Path_25979" data-name="Path 25979" d="M200.152,96.37V82.48H181.545v18.606h4.634v4.541h4.629v-4.541h4.628v4.541h4.629v-4.541h.088V101h4.541v4.629h9.257V101h-4.628V96.37ZM185.109,86.043H196.68v11.57H185.109Z" transform="translate(50.623 376.613)"/>
    <path id="Path_25980" data-name="Path 25980" d="M156.376,106.848v4.629H161V97.59h-4.629v9.257Z" transform="translate(52.655 375.394)"/>
    <path id="Path_25981" data-name="Path 25981" d="M176.516,107.661v4.629h9.257v-4.629Z" transform="translate(51.03 374.581)"/>
    <rect id="Rectangle_17" data-name="Rectangle 17" width="4.629" height="4.629" transform="translate(204.402 486.87)"/>
    <path id="Path_25982" data-name="Path 25982" d="M166.039,117.321h4.628V112.7H161.41v4.621Z" transform="translate(52.249 374.174)"/>
    <path id="Path_25983" data-name="Path 25983" d="M206.726,112.7v4.621h9.257V112.7Z" transform="translate(48.592 374.174)"/>
    <rect id="Rectangle_18" data-name="Rectangle 18" width="4.629" height="4.629" transform="translate(239.203 466.127)"/>
    <path id="Path_25984" data-name="Path 25984" d="M144.274,22.065H121.13V45.209h23.144ZM140.8,41.737H124.6v-16.2h16.2Z" transform="translate(55.5 381.489)"/>
    <rect id="Rectangle_19" data-name="Rectangle 19" width="9.258" height="9.257" transform="translate(183.573 410.496)"/>
    <path id="Path_25985" data-name="Path 25985" d="M191.621,22.065V45.209h23.143V22.065Zm19.672,19.672h-16.2v-16.2h16.2Z" transform="translate(49.811 381.489)"/>
    <rect id="Rectangle_20" data-name="Rectangle 20" width="9.258" height="9.257" transform="translate(248.375 410.496)"/>
    <path id="Path_25986" data-name="Path 25986" d="M121.13,115.762h23.144V92.618H121.13ZM124.6,96.09h16.2v16.2H124.6Z" transform="translate(55.5 375.795)"/>
    <rect id="Rectangle_21" data-name="Rectangle 21" width="9.258" height="9.258" transform="translate(183.573 475.357)"/>
  </g>
</svg>
