<svg xmlns="http://www.w3.org/2000/svg" xmlns:xlink="http://www.w3.org/1999/xlink" width="96" height="79" viewBox="0 0 96 79">
  <defs>
    <clipPath id="clip-path">
      <rect id="Rectangle_31" data-name="Rectangle 31" width="96" height="79" transform="translate(0.391 -0.409)" fill="#bf1e2d"/>
    </clipPath>
  </defs>
  <g id="lower_right" data-name="lower right" transform="translate(-0.391 0.409)" opacity="0.04" clip-path="url(#clip-path)">
    <g id="Group_1483" data-name="Group 1483" transform="matrix(0.875, 0.485, -0.485, 0.875, 46.636, 0.109)" opacity="0.98">
      <path id="Path_274" data-name="Path 274" d="M31.1,79.079H0V47.059L46.75,0H78.534V32.187ZM73.6,4.969h-25L4.945,49.229v24.9H29.518L73.6,29.72Z" transform="translate(0.285 0)" fill="#bf1e2d"/>
      <path id="Path_275" data-name="Path 275" d="M31.1,79.079H0V47.059L46.75,0H78.534V32.187ZM73.6,4.969h-25L4.945,49.229v24.9H29.518L73.6,29.72Z" transform="translate(0.285 0)" fill="#bf1e2d"/>
      <path id="Path_276" data-name="Path 276" d="M79.1,47.438v31.1H47.082L0,31.784V0H32.21ZM4.993,4.934v25L49.253,73.6h24.9V49.015L29.744,4.934Z" transform="translate(0 0.273)" fill="#bf1e2d"/>
      <path id="Path_277" data-name="Path 277" d="M0,0H52.182V52.573H0ZM48.233,4.032H4.009V48.541H48.233Z" transform="translate(13.437 13.235)" fill="#bf1e2d"/>
    </g>
  </g>
</svg>
