<svg xmlns="http://www.w3.org/2000/svg" xmlns:xlink="http://www.w3.org/1999/xlink" width="96" height="79" viewBox="0 0 96 79">
  <defs>
    <clipPath id="clip-path">
      <rect id="Rectangle_35" data-name="Rectangle 35" width="96" height="79" fill="#bf1e2d"/>
    </clipPath>
  </defs>
  <g id="upper_left" data-name="upper left" opacity="0.04" clip-path="url(#clip-path)">
    <g id="Group_1524" data-name="Group 1524" transform="matrix(-0.875, -0.485, 0.485, -0.875, 49.755, 78.481)" opacity="0.98">
      <path id="Path_368" data-name="Path 368" d="M31.1,79.079H0V47.059L46.75,0H78.534V32.187ZM73.6,4.969h-25L4.945,49.229v24.9H29.518L73.6,29.72Z" transform="translate(0.285 0)" fill="#bf1e2d"/>
      <path id="Path_369" data-name="Path 369" d="M31.1,79.079H0V47.059L46.75,0H78.534V32.187ZM73.6,4.969h-25L4.945,49.229v24.9H29.518L73.6,29.72Z" transform="translate(0.285 0)" fill="#bf1e2d"/>
      <path id="Path_370" data-name="Path 370" d="M79.1,47.438v31.1H47.082L0,31.784V0H32.21ZM4.993,4.934v25L49.253,73.6h24.9V49.015L29.744,4.934Z" transform="translate(0 0.273)" fill="#bf1e2d"/>
      <path id="Path_371" data-name="Path 371" d="M0,0H52.182V52.573H0ZM48.233,4.032H4.009V48.541H48.233Z" transform="translate(13.437 13.235)" fill="#bf1e2d"/>
    </g>
  </g>
</svg>
